{
	"analysis":
  [
		{
      "id": 0,
      "imageURL": ""
		},
		{
      "id": 1,
      "imageURL": ""
		},
		{
      "id": 2,
      "imageURL": ""
		},
		{
      "id": 3,
      "imageURL": ""
		},
		{
      "id": 4,
      "imageURL": ""
		},
		{
      "id": 5,
      "imageURL": ""
		}
  ]
}
