{
	"conversation": [{
		"id": 0,
		"imageURL": "background_cam3.jpg",
		"conversationText": "Buen trabajo. Lo último que debemos hacer para nuestro informe es desarrollar algunos Aprendizajes clave.",
		"responseTextOne": "¿Aprendizajes clave? ¿Qué significa eso exactamente?",
		"responseTextTwo": "¿Para eso no son las recomendaciones?",
		"caseFile": true
	}, {
		"id": 1,
		"imageURL": "background_cam5.jpg",
		"conversationText": "Los Aprendizajes clave son las lecciones que hemos aprendido del incidente y las recomendaciones.",
		"responseTextOne": "Entonces, ¿los conductores de camión no deben usar pantalones cortos si está nevando?",
		"responseTextTwo": "¿Quiere decir algo como que todos los camiones deben tener una alarma de retroceso?",
		"caseFile": true
	}, {
		"id": 2,
		"imageURL": "background_cam11.jpg",
		"conversationText": "Están relacionados, pero no son lo mismo. ",
		"continueText": "Continúe.",
		"caseFile": true
	}, {
		"id": 3,
		"imageURL": "background_cam2.jpg",
		"conversationText": "No del todo. Eso es más adecuado como una recomendación.",
		"continueText": "Continúe.",
		"caseFile": true
	}, {
		"id": 4,
		"imageURL": "background_cam16.jpg",
		"conversationText": "Los Aprendizajes clave son más extensos que eso. La ropa sí contribuyó con el incidente, pero debemos tomar un paso hacia atrás.",
		"responseTextOne": "De acuerdo. ¿Qué tal: los camiones y personas debe mantenerse separados?",
		"responseTextTwo": "Muy bien y ¿podría ser que las alarmas de retroceso deben revisarse con regularidad?",
		"caseFile": true
	}, {
		"id": 5,
		"imageURL": "background_cam2.jpg",
		"conversationText": "No del todo. Eso es más adecuado como una recomendación.",
		"continueText": "Continúe.",
		"caseFile": true
	}, {
		"id": 6,
		"imageURL": "background_cam1.jpg",
		"conversationText": "Pero, si lo modificamos para que diga que todos los dispositivos críticos de seguridad, como las alarmas de retroceso, deben revisarse con regularidad, eso sería un Aprendizaje clave.",
		"responseTextOne": "De acuerdo. ¿Qué tal: los camiones y personas debe mantenerse separados?",
		"responseTextTwo": "Correcto. Entonces, ¿qué tal: los conductores deben usar vestimenta y EPP adecuados?",
		"caseFile": true
	}, {
		"id": 7,
		"imageURL": "background_cam4.jpg",
		"conversationText": "No está mal, pero eso es más adecuado como una recomendación.",
		"continueText": "Continúe.",
		"caseFile": true
	}, {
		"id": 8,
		"imageURL": "background_cam11.jpg",
		"conversationText": "Los Aprendizajes clave son más extensos que eso. La ropa sí contribuyó con el incidente, pero debemos tomar un paso hacia atrás.",
		"continueText": "De acuerdo. ¿Qué tal: los camiones y personas debe mantenerse separados?",
		"caseFile": true
	}, {
		"id": 9,
		"imageURL": "background_cam3.jpg",
		"conversationText": "Sí. Eso está mucho más apegado a un Aprendizaje clave.",
		"continueText": "Continúe.",
		"caseFile": true
	}, {
		"id": 10,
		"imageURL": "background_cam5.jpg",
		"conversationText": "Podemos formalizarlo como: la separación segura de vehículos y peatones debe mantenerse en todo momento",
		"responseTextOne": "Sí, ya veo lo que intenta decir, pero no estoy 100 % seguro.",
		"responseTextTwo": "De acuerdo. Creo que lo tengo.",
		"caseFile": true
	}, {
		"id": 11,
		"imageURL": "background_cam3.jpg",
		"conversationText": "Está muy bien. Aunque creo que podemos ir un paso más allá.",
		"continueText": "Continúe.",
		"caseFile": true
	}, {
		"id": 12,
		"imageURL": "background_cam11.jpg",
		"conversationText": "Digamos, la operación de todos los dispositivos críticos de seguridad como las alarmas de retroceso debe revisarse con regularidad.",
		"responseTextOne": "Sí, ya veo lo que intenta decir, pero no estoy 100 % seguro.",
		"responseTextTwo": "De acuerdo. Entiendo. No se refiere específicamente a un solo elemento. Esto puede abarcar espejos con calefacción también.",
		"caseFile": true
	}, {
		"id": 13,
		"imageURL": "background_cam2.jpg",
		"conversationText": "Muy bien, vamos a hacer uno más juntos. Recuerde su entrevista con Bob, el gerente del Almacén.",
		"responseTextOne": "¿Qué aspecto de él?",
		"responseTextTwo": "Él no estaba dispuesto a asumir la responsabilidad de lo que pasó.",
		"caseFile": true
	}, {
		"id": 14,
		"imageURL": "background_cam5.jpg",
		"conversationText": "Estaba hablando sobre la cultura de seguridad de ellos.",
		"responseTextOne": "Es correcto. ¿Hace falta algún análisis de eso?",
		"responseTextTwo": "Seguro, pero ¿qué hacemos con eso?",
		"caseFile": true
	}, {
		"id": 15,
		"imageURL": "background_cam11.jpg",
		"conversationText": "Pienso que podemos encontrar un Aprendizaje clave aquí.",
		"responseTextOne": "Muy bien, ¿qué tal que los gerentes deben promover la seguridad?",
		"responseTextTwo": "De acuerdo. ¿Qué tal: los gerentes deben demostrar prácticas seguras de liderazgo?",
		"caseFile": true
	}, {
		"id": 16,
		"imageURL": "background_cam3.jpg",
		"conversationText": "Muy bien. Vamos a formalizarlo un poco.",
		"continueText": "¿Qué tal: los gerentes deben promover la seguridad a través de liderazgo visible?",
		"caseFile": true
	}, {
		"id": 17,
		"imageURL": "background_cam12.jpg",
		"conversationText": "Muy bien. Buen trabajo.",
		"continueText": "Continúe.",
		"caseFile": true
	}, {
		"id": 18,
		"imageURL": "background_cam11.jpg",
		"conversationText": "Muy bien. Hagamos uno más. ¿Que piensa usted?",
		"responseTextOne": "Creo que debemos hablar sobre seguridad.",
		"responseTextTwo": "Pienso que debo mencionar el liderazgo.",
		"caseFile": true
	}, {
		"id": 19,
		"imageURL": "background_cam16.jpg",
		"conversationText": "Muy bien. ¿Qué aspectos de él?",
		"responseTextOne": "El gerente del almacén no asumía responsabilidad.",
		"responseTextTwo": "El gerente del almacén debe ejercer prácticas seguras.",
		"caseFile": true
	}, {
		"id": 20,
		"imageURL": "background_cam3.jpg",
		"conversationText": "Suena bien hasta ahora...",
		"responseTextOne": "Tiene que ser sobre promover la seguridad.",
		"responseTextTwo": "Debería ser sobre liderazgo visible.",
		"caseFile": true
	}, {
		"id": 21,
		"imageURL": "background_cam11.jpg",
		"conversationText": "O. K., ¿cuál es nuestro Aprendizaje clave?",
		"continueText": "¿Qué tal: los gerentes deben promover la seguridad a través de liderazgo visible?",
		"caseFile": true
	}, {
		"id": 22,
		"imageURL": "background_cam12.jpg",
		"conversationText": "Muy bien. Buen trabajo.",
		"continueText": "Continúe.",
		"caseFile": true
	}, {
		"id": 23,
		"imageURL": "background_cam6.jpg",
		"conversationText": "Muy bien. Vamos a repasar nuestros Aprendizajes clave.",
		"continueText": "Continúe.",
		"caseFile": true
	}, {
		"id": 24,
		"imageURL": "background_cam1.jpg",
		"conversationText": "La separación segura de vehículos y peatones debe mantenerse en todo momento.",
		"continueText": "Continúe.",
		"caseFile": true
	}, {
		"id": 25,
		"imageURL": "background_cam5.jpg",
		"conversationText": "La operación de todos los dispositivos críticos de seguridad como las alarmas de retroceso debe revisarse con regularidad.",
		"continueText": "Continúe.",
		"caseFile": true
	}, {
		"id": 26,
		"imageURL": "background_cam11.jpg",
		"conversationText": "Los gerentes deben promover la seguridad a través de liderazgo visible.",
		"continueText": "Continúe.",
		"caseFile": true
	}, {
		"id": 27,
		"imageURL": "background_cam3.jpg",
		"conversationText": "Eso concluye nuestro análisis. Ahora debemos escribir un informe.",
		"continueText": "Continúe.",
		"caseFile": true
	}, {
		"id": 28,
		"imageURL": "background_cam12.jpg",
		"conversationText": "Vamos a echar un vistazo al patio luego de que se implementen las recomendaciones.",
		"continueText": "Continúe.",
		"caseFile": true
	}]
}
