﻿{
	"interviewTechniques": 
	[
		{
			"id": 0,
			"title00": "Técnicas de entrevista",
			"copy00": "Realice entrevistas de manera individual, preferiblemente en la escena.",
			"copy01": "Pídale al testigo que explique:",
            "bullet00": "La secuencia de eventos",
            "bullet01": "Cualquier control de riesgo existente",
            "bullet02": "Cualquier incidente similar del pasado",
            "bullet03": "Su experiencia, entrenamiento y limitaciones físicas",
            "bullet04": "Estrés o presión por el tiempo",
            "bullet05": "Reafírmeles que usted no está tratando de culpar a nadie."
		},
		{
            "id": 1,
			"title00": "Jerarquía de preguntas de entrevista",
            "title01": "1. Recuerdo libre",
            "bullet00": "Una oportunidad para recrear el incidente con sus propias palabras.",
			"copy00": "Es la mejor manera de comenzar:",
			"quote00": "<em>¿Puede decirme con sus propias palabras qué recuerda acerca del incidente?</em>"
		},
		{
			"id": 2,
			"title00": "Jerarquía de preguntas de entrevista",
            "title01": "2. Preguntas abiertas",
            "bullet00": "Este tipo de pregunta invita al testigo a que dé una respuesta más informativa, en vez de decir sí o no.",
			"quote00": "<em>¿Qué ocurrió después de que cambiaran las luces?<em>"
		},
		{
			"id": 3,
			"title00": "Jerarquía de preguntas de entrevista",
            "title01": "3. Escuchar activamente",
            "bullet00": "Ofrezca señales verbales y no verbales para que el testigo continúe.",
            "copy00": "Mantenga contacto visual, inclínese hacia delante, asienta levemente con la cabeza, ofrezca retroalimentación verbal:",
			"quote00": "<em>Entiendo, de acuerdo, siga...</em>"
		},
		{
			"id": 4,
			"title00": "Jerarquía de preguntas de entrevista",
            "title01": "4. Parafrasear",
            "bullet00": "Tome en cuenta lo que ha dicho el testigo y repítalo con sus propias palabras.",
			"quote00": "<em>Entonces, me está diciendo que el vehículo giró hacia la intersección desde su izquierda, ¿correcto?</em>"
		},
		{
			"id": 5,
			"title00": "Jerarquía de preguntas de entrevista",
            "title01": "5. Preguntas cerradas",
            "bullet00": "Se pueden responder usualmente con una sola palabra.",
            "copy00": "Pueden ayudar a aclarar detalles.",
			"quote00": "<em>¿Le explicó el Permiso para Trabajar?</em>"
		},
		{
			"id": 6,
			"title00": "Jerarquía de preguntas de entrevista",
            "title01": "6. Preguntas inductivas",
            "bullet00": "Este tipo de pregunta anticipa la respuesta que podría darse.",
            "copy00": "Úselas únicamente al final y con cuidado.",
			"quote00": "<em>¿No está de acuerdo en que los procedimientos eran inadecuados para la tarea?</em>"
		},
		{
			"id": 7,
			"title00": "Jerarquía de preguntas de entrevista",
            "title01": "7. Preguntas capciosas",
            "bullet00": "Las preguntas capciosas podrían resultar en una reacción emocional.",
            "copy00": "Evite usar preguntas capciosas:",
			"quote00": "<em>¿Qué tan desprevenido cree usted que fue el otro conductor?</em>"
		}
	]
}