{
	"index":
		{
			"id": 0,
			"imageURL": "cam_position00.jpg",
			"titleText": "Welcome back to ICAM Investigation Training.",
			"introductionText": "The Gather & Organise Data section of the training will take you through how to interview witnesses and ensure you have gathered the data you identified in your PEEPO.<br><br>Tap 'Start' to continue."
		}
}
