{
	"interviewTechniques": 
	[
		{
			"id": 0,
			"title00": "Interview Techniques",
			"copy00": "Conduct interviews individually, preferably at the scene.",
			"copy01": "Ask the witness to explain:",
            "bullet00": "The sequence of events",
            "bullet01": "Any existing risk controls",
            "bullet02": "Any similar incidents from the past",
            "bullet03": "Their experience, training and any physical limitations",
            "bullet04": "Stress or time pressures",
            "bullet05": "Reassure them that you're not trying to apportion blame."
		},
		{
            "id": 1,
			"title00": "Interview Question Hierarchy",
            "title01": "1. Free Recall",
            "bullet00": "An opportunity to recreate the incident in their own words.",
			"copy00": "This is the best way to start:",
			"quote00": "<em>Could you tell me in your own words, what you remember about the incident.</em>"
		},
		{
			"id": 2,
			"title00": "Interview Question Hierarchy",
            "title01": "2. Open Ended Questions",
            "bullet00": "This type of question invites the witness to give a more informative answer, rather than yes or no.",
			"quote00": "<em>What happened after the lights changed?<em>"
		},
		{
			"id": 3,
			"title00": "Interview Question Hierarchy",
            "title01": "3. Active Listening",
            "bullet00": "Offer verbal and non-verbal indications for the witness to continue.",
            "copy00": "Maintain eye contact, lean forward, nod slightly, offer verbal feedback:",
			"quote00": "<em>I see, okay, go on...</em>"
		},
		{
			"id": 4,
			"title00": "Interview Question Hierarchy",
            "title01": "4. Paraphrasing",
            "bullet00": "Consider what the witness has said and repeat it in your own words.",
			"quote00": "<em>So you're saying that the car turned into the intersection from your left, is that right?</em>"
		},
		{
			"id": 5,
			"title00": "Interview Question Hierarchy",
            "title01": "5. Closed Questions",
            "bullet00": "Can usually be answered with a one word answer.",
            "copy00": "These can help clarify details.",
			"quote00": "<em>So you did explain the Permit to Work?</em>"
		},
		{
			"id": 6,
			"title00": "Interview Question Hierarchy",
            "title01": "6. Leading Questions",
            "bullet00": "These anticipate the answer that may be provided.",
            "copy00": "Use these only at the end and with caution.",
			"quote00": "<em>Don't you agree that the procedures were inadequate for the task?</em>"
		},
		{
			"id": 7,
			"title00": "Interview Question Hierarchy",
            "title01": "7. Loaded Questions",
            "bullet00": "Loaded questions may result in an emotional reaction.",
            "copy00": "Avoid using loaded questions:",
			"quote00": "<em>How careless do you think the other driver was?</em>"
		}
	]
}